_service/20171223173935_SimulateISim_ace913_STOPWATCH_tb/STOPWATCH_tb.vcd
$date
   Sat Dec 23 17:39:39 2017
$end
$version
  P.15xf
$end
$timescale
  1ps
$end
$scope module STOPWATCH_tb $end
$var wire 1 ! HOUR [3] $end
$var wire 1 " HOUR [2] $end
$var wire 1 # HOUR [1] $end
$var wire 1 $ HOUR [0] $end
$var wire 1 % MINHIGH [2] $end
$var wire 1 & MINHIGH [1] $end
$var wire 1 ' MINHIGH [0] $end
$var wire 1 ( MINLOW [3] $end
$var wire 1 ) MINLOW [2] $end
$var wire 1 * MINLOW [1] $end
$var wire 1 + MINLOW [0] $end
$var wire 1 , MSE00 [3] $end
$var wire 1 - MSE00 [2] $end
$var wire 1 . MSE00 [1] $end
$var wire 1 / MSE00 [0] $end
$var wire 1 0 MSEC1ST [3] $end
$var wire 1 1 MSEC1ST [2] $end
$var wire 1 2 MSEC1ST [1] $end
$var wire 1 3 MSEC1ST [0] $end
$var wire 1 4 MSEC2ND [3] $end
$var wire 1 5 MSEC2ND [2] $end
$var wire 1 6 MSEC2ND [1] $end
$var wire 1 7 MSEC2ND [0] $end
$var wire 1 8 SECHIGH [2] $end
$var wire 1 9 SECHIGH [1] $end
$var wire 1 : SECHIGH [0] $end
$var wire 1 ; SECLOW [3] $end
$var wire 1 < SECLOW [2] $end
$var wire 1 = SECLOW [1] $end
$var wire 1 > SECLOW [0] $end
$var reg 1 ? CLK $end
$var reg 1 @ RST $end
$var reg 1 A STOPWATCH_RUN $end
$var reg 1 B SW_F1 $end
$var reg 1 C SW_F2 $end
$upscope $end
$enddefinitions $end
#0
$dumpvars
x+
x*
x)
x(
x/
x.
x-
x,
x3
x2
x1
x0
x$
x#
x"
x!
x'
x&
x%
0?
0@
0A
0B
0C
x7
x6
x5
x4
x:
x9
x8
x>
x=
x<
x;
$end
#100000
0+
0*
0)
0(
0/
0.
0-
0,
03
02
01
00
0$
0#
0"
0!
0'
0&
0%
1?
1@
07
06
05
04
0:
09
08
0>
0=
0<
0;
#200000
0?
#300000
1?
0@
#400000
0?
1A
#500000
1?
#600000
0?
1B
#700000
1/
1?
#800000
0?
#900000
0/
1.
1?
0B
#1000000
0?
#1100000
1/
1?
#1200000
0?
#1300000
0/
0.
1-
1?
#1400000
0?
#1500000
1/
1?
#1600000
0?
#1700000
0/
1.
1?
#1800000
0?
#1900000
1/
1?
#2000000
0?
#2100000
0/
0.
0-
1,
1?
#2200000
0?
#2300000
1/
1?
#2400000
0?
#2500000
0/
0,
13
1?
#2600000
0?
#2700000
1/
1?
#2800000
0?
#2900000
0/
1.
1?
#3000000
0?
#3100000
1/
1?
1B
#3200000
0?
#3300000
0/
0.
1-
1?
0B
#3400000
0?
#3500000
1/
1?
#3600000
0?
#3700000
0/
1.
1?
1C
#3800000
0?
#3900000
0/
0.
0-
03
1?
0C
