_service/20171223170111_SimulateISim_ace913_ModeSet_tb/ModeSet_tb.vcd
$date
   Sat Dec 23 17:01:15 2017
$end
$version
  P.15xf
$end
$timescale
  1ps
$end
$scope module ModeSet_tb $end
$var wire 1 ! ALARMSET_RUN $end
$var wire 1 " STOPWATCH_RUN $end
$var wire 1 # TIMESET_RUN $end
$var reg 1 $ SW_MODE $end
$var reg 1 % CLK $end
$var reg 1 & RST $end
$upscope $end
$enddefinitions $end
#0
$dumpvars
0$
0%
1&
0!
0"
0#
$end
#50000
1%
#100000
0%
0&
#150000
1%
#200000
1$
0%
#250000
1%
1!
#300000
0%
#350000
1%
0!
1"
#400000
0%
#450000
1%
0"
1#
#500000
0%
#550000
1%
0#
#600000
0%
#650000
1%
1!
#700000
0%
#750000
1%
0!
1"
#800000
0$
0%
#850000
1%
#900000
0%
#950000
1%
#1000000
1$
0%
#1050000
1%
0"
1#
#1100000
0$
0%
#1150000
1%
#1200000
0%
#1250000
1%
#1300000
1$
0%
#1350000
1%
0#
#1400000
0$
0%
#1450000
1%
#1500000
0%
#1550000
1%
#1600000
1$
0%
#1650000
1%
1!
#1700000
0$
0%
#1750000
1%
#1800000
0%
#1850000
1%
#1900000
1$
0%
#1950000
1%
0!
1"
#2000000
0$
0%
