_service/20171223170629_SimulateISim_ace913_counter6_tb/counter6_tb.vcd
$date
   Sat Dec 23 17:06:33 2017
$end
$version
  P.15xf
$end
$timescale
  1ps
$end
$scope module counter6_tb $end
$var wire 1 ! CNT6A [2] $end
$var wire 1 " CNT6A [1] $end
$var wire 1 # CNT6A [0] $end
$var reg 1 $ clk $end
$var reg 1 % rst $end
$upscope $end
$enddefinitions $end
#0
$dumpvars
0$
0%
x#
x"
x!
$end
#100000
1$
1%
0#
0"
0!
#200000
0$
#300000
1$
0%
1#
#400000
0$
#500000
1$
0#
1"
#600000
0$
#700000
1$
1#
#800000
0$
#900000
1$
0#
0"
1!
#1000000
0$
#1100000
1$
1#
#1200000
0$
#1300000
1$
0#
0!
#1400000
0$
#1500000
1$
1#
#1600000
0$
#1700000
1$
0#
1"
#1800000
0$
#1900000
1$
1#
#2000000
0$
#2100000
1$
0#
0"
1!
#2200000
0$
#2300000
1$
1#
#2400000
0$
#2500000
1$
0#
0!
#2600000
0$
#2700000
1$
1#
#2800000
0$
#2900000
1$
0#
1"
#3000000
0$
#3100000
1$
1#
#3200000
0$
#3300000
1$
0#
0"
1!
#3400000
0$
#3500000
1$
1#
#3600000
0$
#3700000
1$
0#
0!
#3800000
0$
#3900000
1$
1#
#4000000
0$
#4100000
1$
0#
1"
#4200000
0$
#4300000
1$
1#
#4400000
0$
#4500000
1$
0#
0"
1!
#4600000
0$
#4700000
1$
1#
#4800000
0$
#4900000
1$
0#
0!
#5000000
0$
#5100000
1$
1#
#5200000
0$
#5300000
1$
0#
1"
#5400000
0$
#5500000
1$
1#
#5600000
0$
#5700000
1$
0#
0"
1!
#5800000
0$
#5900000
1$
1#
#6000000
0$
#6100000
1$
0#
0!
#6200000
0$
#6300000
1$
1#
#6400000
0$
#6500000
1$
0#
1"
#6600000
0$
#6700000
1$
1#
#6800000
0$
#6900000
1$
0#
0"
1!
#7000000
0$
#7100000
1$
1#
#7200000
0$
#7300000
1$
0#
0!
#7400000
0$
#7500000
1$
1#
#7600000
0$
#7700000
1$
0#
1"
#7800000
0$
#7900000
1$
1#
#8000000
0$
#8100000
1$
0#
0"
1!
#8200000
0$
#8300000
1$
1#
#8400000
0$
#8500000
1$
0#
0!
#8600000
0$
#8700000
1$
1#
#8800000
0$
#8900000
1$
0#
1"
#9000000
0$
#9100000
1$
1#
#9200000
0$
#9300000
1$
0#
0"
1!
#9400000
0$
#9500000
1$
1#
#9600000
0$
#9700000
1$
0#
0!
#9800000
0$
#9900000
1$
1#
