각 모듈 시뮬레이션/ALARM_tb.vcd
$date
   Sat Dec 23 14:13:10 2017
$end
$version
  P.15xf
$end
$timescale
  1ps
$end
$scope module ALARM_tb $end
$var wire 1 ! ALM_AMPM $end
$var wire 1 " ALM_HOUR [3] $end
$var wire 1 # ALM_HOUR [2] $end
$var wire 1 $ ALM_HOUR [1] $end
$var wire 1 % ALM_HOUR [0] $end
$var wire 1 & ALM_MINHIGH [2] $end
$var wire 1 ' ALM_MINHIGH [1] $end
$var wire 1 ( ALM_MINHIGH [0] $end
$var wire 1 ) ALM_MINLOW [3] $end
$var wire 1 * ALM_MINLOW [2] $end
$var wire 1 + ALM_MINLOW [1] $end
$var wire 1 , ALM_MINLOW [0] $end
$var wire 1 - BEEP $end
$var reg 1 . AMPM $end
$var reg 4 / HOUR [3:0] $end
$var reg 3 0 MINHIGH [2:0] $end
$var reg 4 1 MINLOW [3:0] $end
$var reg 1 2 RST $end
$var reg 1 3 CLK $end
$var reg 1 4 SW_F1 $end
$var reg 1 5 SW_F2 $end
$var reg 1 6 ALARMSET_RUN $end
$upscope $end
$enddefinitions $end
#0
$dumpvars
x%
x$
x#
x"
x(
x'
x&
x,
x+
x*
x)
x!
0.
b1 /
b0 0
b1 1
02
03
04
05
06
x-
$end
#50000
13
#100000
0%
0$
0#
0"
0(
0'
0&
0,
0+
0*
0)
0!
12
03
0-
#150000
13
#200000
02
03
#250000
13
#300000
03
16
#350000
13
#400000
03
#450000
13
#500000
03
14
#550000
13
#600000
03
04
#650000
13
#700000
03
15
#750000
13
#800000
03
05
#850000
13
#900000
03
#950000
13
#1000000
b10 1
03
#1050000
13
#1100000
03
14
#1150000
13
#1200000
03
04
#1250000
13
#1300000
03
15
#1350000
1%
13
#1400000
03
05
#1450000
13
#1500000
03
#1550000
13
#1600000
03
14
#1650000
13
#1700000
03
04
#1750000
13
#1800000
03
15
#1850000
1,
13
#1900000
03
05
#1950000
13
#2000000
03
#2050000
13
#2100000
03
15
#2150000
0,
1+
13
#2200000
03
05
#2250000
13
#2300000
03
#2350000
13
#2400000
03
14
#2450000
13
#2500000
03
04
#2550000
13
#2600000
03
#2650000
13
#2700000
03
#2750000
13
#2800000
03
#2850000
13
#2900000
03
06
1-
