각 모듈 시뮬레이션/DigitalClock_tb.vcd
$date
   Sat Dec 23 14:10:42 2017
$end
$version
  P.15xf
$end
$timescale
  1ps
$end
$scope module DigitalClock_tb $end
$var wire 1 ! AMPM $end
$var wire 1 " BEEP $end
$var wire 1 # ComOut [7] $end
$var wire 1 $ ComOut [6] $end
$var wire 1 % ComOut [5] $end
$var wire 1 & ComOut [4] $end
$var wire 1 ' ComOut [3] $end
$var wire 1 ( ComOut [2] $end
$var wire 1 ) ComOut [1] $end
$var wire 1 * ComOut [0] $end
$var wire 1 + segOut [6] $end
$var wire 1 , segOut [5] $end
$var wire 1 - segOut [4] $end
$var wire 1 . segOut [3] $end
$var wire 1 / segOut [2] $end
$var wire 1 0 segOut [1] $end
$var wire 1 1 segOut [0] $end
$var reg 1 2 CLK $end
$var reg 1 3 RST $end
$var reg 1 4 SW_F1 $end
$var reg 1 5 SW_F2 $end
$var reg 1 6 SW_MODE $end
$upscope $end
$enddefinitions $end
#0
$dumpvars
0!
0"
0*
1)
1(
1'
1&
1%
02
13
04
05
06
1$
1#
01
00
0/
0.
1-
1,
0+
$end
#50000
12
#100000
02
03
16
#150000
1*
0)
12
11
1/
1.
0-
1+
#200000
02
06
#250000
1)
0(
12
01
10
1-
#300000
02
14
#350000
1(
0'
12
#400000
02
04
#450000
1'
0&
12
#500000
02
15
#550000
1&
0%
12
#600000
02
05
#650000
1%
12
0$
#700000
02
15
#750000
12
1$
0#
#800000
02
05
#850000
0*
1(
1&
12
1$
1#
00
0/
0.
0+
#900000
02
14
#950000
1*
0)
12
11
1/
1.
0-
1+
#1000000
02
04
#1050000
1)
0(
12
01
10
1-
#1100000
02
15
#1150000
1(
0'
12
#1200000
02
05
#1250000
1'
0&
12
#1300000
02
15
#1350000
1&
0%
12
#1400000
02
05
#1450000
1%
12
0$
#1500000
02
#1550000
12
1$
0#
#1600000
02
14
#1650000
0*
1(
1&
12
1$
1#
#1700000
02
04
#1750000
1*
0)
12
11
00
0-
#1800000
02
15
#1850000
1)
0(
12
01
10
1-
#1900000
02
05
#1950000
1(
0'
12
00
0/
0.
0+
#2000000
02
15
#2050000
1'
0&
12
10
1/
1.
1+
#2100000
02
05
#2150000
1&
0%
12
#2200000
02
14
#2250000
1%
12
0$
#2300000
02
04
#2350000
12
1$
0#
#2400000
02
16
#2450000
0*
1(
1&
12
1$
1#
00
0/
0.
0+
#2500000
02
06
#2550000
1*
0)
12
11
1/
1.
0-
1+
#2600000
02
14
#2650000
1)
0(
12
01
10
1-
#2700000
02
04
#2750000
1(
0'
12
#2800000
02
#2850000
1'
0&
12
#2900000
02
#2950000
1&
0%
12
#3000000
02
#3050000
1%
12
0$
#3100000
02
#3150000
12
1$
0#
11
00
0/
#3200000
02
#3250000
0*
1(
1&
12
1$
1#
01
0.
0+
#3300000
02
#3350000
1*
0)
12
11
1/
1.
0-
1+
#3400000
02
#3450000
1)
0(
12
01
10
1-
#3500000
02
#3550000
1(
0'
12
#3600000
02
15
#3650000
1'
0&
12
#3700000
02
05
#3750000
1&
0%
12
#3800000
02
14
#3850000
1%
12
0$
#3900000
02
04
#3950000
12
1$
0#
11
00
0/
#4000000
02
16
#4050000
0*
1(
1&
12
1$
1#
01
0.
0+
#4100000
02
06
#4150000
1*
0)
12
11
1/
1.
0-
1+
#4200000
02
#4250000
1)
0(
12
01
10
1-
#4300000
02
14
#4350000
1(
0'
12
#4400000
02
04
15
#4450000
1'
0&
12
#4500000
02
05
#4550000
1&
0%
12
#4600000
02
15
#4650000
1%
12
0$
#4700000
02
05
#4750000
12
1$
0#
#4800000
02
14
#4850000
0*
1(
1&
12
1$
1#
00
0/
0.
0+
#4900000
02
04
15
#4950000
1*
0)
12
11
1/
1.
0-
1+
#5000000
02
05
#5050000
1)
0(
12
01
10
1-
#5100000
02
15
#5150000
1(
0'
12
#5200000
02
05
#5250000
1'
0&
12
#5300000
02
14
#5350000
1&
0%
12
11
00
0-
#5400000
02
04
#5450000
1%
12
0$
01
10
1-
#5500000
02
15
#5550000
12
1$
0#
#5600000
02
05
#5650000
0*
1(
1&
12
1$
1#
00
0/
0.
0+
#5700000
02
15
#5750000
1*
0)
12
11
1/
1.
0-
1+
#5800000
02
05
#5850000
1)
0(
12
01
10
1-
#5900000
02
14
#5950000
1(
0'
12
11
00
0-
#6000000
02
04
#6050000
1'
0&
12
01
10
1-
#6100000
02
16
#6150000
1&
0%
12
11
00
0-
#6200000
02
06
#6250000
1%
12
0$
01
10
1-
#6300000
02
#6350000
12
1$
0#
#6400000
02
#6450000
0*
1(
1&
12
1$
1#
#6500000
02
#6550000
1*
0)
12
11
00
0-
#6600000
02
#6650000
1)
0(
12
01
10
1-
#6700000
02
#6750000
1(
0'
12
11
00
0-
#6800000
02
#6850000
1'
0&
12
01
10
1-
#6900000
02
#6950000
1&
0%
12
11
00
0-
#7000000
02
#7050000
1%
12
0$
01
10
1-
#7100000
02
#7150000
12
1$
0#
#7200000
02
#7250000
0*
1(
1&
12
1$
1#
#7300000
02
#7350000
1*
0)
12
11
00
0-
#7400000
02
#7450000
1)
0(
12
01
10
1-
#7500000
02
#7550000
1(
0'
12
11
00
0-
#7600000
02
#7650000
1'
0&
12
01
10
1-
#7700000
02
#7750000
1&
0%
12
11
00
0-
#7800000
02
#7850000
1%
12
0$
01
10
1-
#7900000
02
#7950000
12
1$
0#
#8000000
02
#8050000
0*
1(
1&
12
1$
1#
#8100000
02
#8150000
1*
0)
12
11
00
0-
#8200000
02
#8250000
1)
0(
12
01
10
1-
#8300000
02
#8350000
1(
0'
12
11
00
0-
#8400000
02
#8450000
1'
0&
12
01
10
1-
#8500000
02
#8550000
1&
0%
12
11
00
0-
#8600000
02
#8650000
1%
12
0$
01
10
1-
#8700000
02
#8750000
12
1$
0#
#8800000
02
#8850000
0*
1(
1&
12
1$
1#
#8900000
02
#8950000
1*
0)
12
11
00
0-
#9000000
02
#9050000
1)
0(
12
01
10
1-
#9100000
02
#9150000
1(
0'
12
11
00
0-
#9200000
02
#9250000
1'
0&
12
01
10
1-
#9300000
02
#9350000
1&
0%
12
11
00
0-
#9400000
02
#9450000
1%
12
0$
01
10
1-
#9500000
02
#9550000
12
1$
0#
#9600000
02
#9650000
0*
1(
1&
12
1$
1#
#9700000
02
#9750000
1*
0)
12
11
00
0-
#9800000
02
#9850000
1)
0(
12
01
10
1-
#9900000
02
#9950000
1(
0'
12
11
00
0-
