각 모듈 시뮬레이션/STOPWATCH_tb.vcd
$date
   Sat Dec 23 14:15:03 2017
$end
$version
  P.15xf
$end
$timescale
  1ps
$end
$scope module STOPWATCH_tb $end
$var wire 1 ! HOUR [3] $end
$var wire 1 " HOUR [2] $end
$var wire 1 # HOUR [1] $end
$var wire 1 $ HOUR [0] $end
$var wire 1 % MINHIGH [2] $end
$var wire 1 & MINHIGH [1] $end
$var wire 1 ' MINHIGH [0] $end
$var wire 1 ( MINLOW [3] $end
$var wire 1 ) MINLOW [2] $end
$var wire 1 * MINLOW [1] $end
$var wire 1 + MINLOW [0] $end
$var wire 1 , MSE00 [3] $end
$var wire 1 - MSE00 [2] $end
$var wire 1 . MSE00 [1] $end
$var wire 1 / MSE00 [0] $end
$var wire 1 0 MSEC1ST [3] $end
$var wire 1 1 MSEC1ST [2] $end
$var wire 1 2 MSEC1ST [1] $end
$var wire 1 3 MSEC1ST [0] $end
$var wire 1 4 MSEC2ND [3] $end
$var wire 1 5 MSEC2ND [2] $end
$var wire 1 6 MSEC2ND [1] $end
$var wire 1 7 MSEC2ND [0] $end
$var wire 1 8 SECHIGH [2] $end
$var wire 1 9 SECHIGH [1] $end
$var wire 1 : SECHIGH [0] $end
$var wire 1 ; SECLOW [3] $end
$var wire 1 < SECLOW [2] $end
$var wire 1 = SECLOW [1] $end
$var wire 1 > SECLOW [0] $end
$var reg 1 ? CLK $end
$var reg 1 @ RST $end
$var reg 1 A STOPWATCH_RUN $end
$var reg 1 B SW_F1 $end
$var reg 1 C SW_F2 $end
$upscope $end
$enddefinitions $end
#0
$dumpvars
x+
x*
x)
x(
x/
x.
x-
x,
x3
x2
x1
x0
x$
x#
x"
x!
x'
x&
x%
0?
0@
0A
0B
0C
x7
x6
x5
x4
x:
x9
x8
x>
x=
x<
x;
$end
#100000
0+
0*
0)
0(
0/
0.
0-
0,
03
02
01
00
0$
0#
0"
0!
0'
0&
0%
1?
1@
07
06
05
04
0:
09
08
0>
0=
0<
0;
#200000
0?
#300000
1/
1?
0@
#400000
0?
1A
#500000
0/
1.
1?
#600000
0?
#700000
1/
1?
1B
#800000
0?
#900000
0/
0.
1-
1?
0B
#1000000
0?
#1100000
1/
1?
#1200000
0?
#1300000
0/
1.
1?
#1400000
0?
#1500000
1/
1?
#1600000
0?
#1700000
0/
0.
0-
1,
1?
#1800000
0?
#1900000
1/
1?
#2000000
0?
#2100000
0/
0,
13
1?
#2200000
0?
#2300000
1/
1?
#2400000
0?
#2500000
0/
1.
1?
#2600000
0?
#2700000
1/
1?
#2800000
0?
#2900000
0/
0.
1-
1?
#3000000
0?
#3100000
1/
1?
#3200000
0?
#3300000
0/
1.
1?
#3400000
0?
#3500000
1/
1?
#3600000
0?
#3700000
0/
0.
0-
1,
1?
#3800000
0?
#3900000
1/
1?
#4000000
0?
#4100000
0/
0,
03
12
1?
#4200000
0?
#4300000
1/
1?
#4400000
0?
#4500000
0/
1.
1?
1B
#4600000
0?
#4700000
1/
1?
0B
#4800000
0?
#4900000
0/
0.
1-
1?
#5000000
0?
#5100000
1/
1?
1B
#5200000
0?
#5300000
0/
1.
1?
0B
#5400000
0?
#5500000
1/
1?
#5600000
0?
#5700000
0/
0.
0-
1,
1?
#5800000
0?
#5900000
1/
1?
1C
#6000000
0?
#6100000
0/
0,
13
1?
0C
#6200000
0?
#6300000
1/
1?
#6400000
0?
#6500000
0/
1.
1?
#6600000
0?
#6700000
1/
1?
#6800000
0?
#6900000
0/
0.
1-
1?
#7000000
0?
#7100000
1/
1?
#7200000
0?
#7300000
0/
1.
1?
#7400000
0?
#7500000
1/
1?
#7600000
0?
#7700000
0/
0.
0-
1,
1?
#7800000
0?
#7900000
1/
1?
#8000000
0?
#8100000
0/
0,
03
02
11
1?
#8200000
0?
#8300000
1/
1?
#8400000
0?
#8500000
0/
1.
1?
#8600000
0?
#8700000
1/
1?
#8800000
0?
#8900000
0/
0.
1-
1?
#9000000
0?
#9100000
1/
1?
#9200000
0?
#9300000
0/
1.
1?
#9400000
0?
#9500000
1/
1?
#9600000
0?
#9700000
0/
0.
0-
1,
1?
#9800000
0?
#9900000
1/
1?
