각 모듈 시뮬레이션/TIME_tb.vcd
$date
   Sat Dec 23 14:15:53 2017
$end
$version
  P.15xf
$end
$timescale
  1ps
$end
$scope module TIME_tb $end
$var wire 1 ! TIM_AMPM $end
$var wire 1 " TIM_HOUR [3] $end
$var wire 1 # TIM_HOUR [2] $end
$var wire 1 $ TIM_HOUR [1] $end
$var wire 1 % TIM_HOUR [0] $end
$var wire 1 & TIM_MINHIGH [2] $end
$var wire 1 ' TIM_MINHIGH [1] $end
$var wire 1 ( TIM_MINHIGH [0] $end
$var wire 1 ) TIM_MINLOW [3] $end
$var wire 1 * TIM_MINLOW [2] $end
$var wire 1 + TIM_MINLOW [1] $end
$var wire 1 , TIM_MINLOW [0] $end
$var wire 1 - TIM_SECHIGH [2] $end
$var wire 1 . TIM_SECHIGH [1] $end
$var wire 1 / TIM_SECHIGH [0] $end
$var wire 1 0 TIM_SECLOW [3] $end
$var wire 1 1 TIM_SECLOW [2] $end
$var wire 1 2 TIM_SECLOW [1] $end
$var wire 1 3 TIM_SECLOW [0] $end
$var reg 1 4 CLK $end
$var reg 1 5 RST $end
$var reg 1 6 SW_F1 $end
$var reg 1 7 SW_F2 $end
$var reg 1 8 TIMESET_RUN $end
$upscope $end
$enddefinitions $end
#0
$dumpvars
0,
0+
0*
0)
0/
0.
0-
03
02
01
00
0!
0%
0$
0#
0"
0(
0'
0&
04
15
06
07
08
$end
#50000
14
#100000
04
05
#150000
14
#200000
04
#250000
14
#300000
04
#350000
14
#400000
04
#450000
14
#500000
04
18
#550000
14
#600000
04
16
#650000
14
#700000
04
06
#750000
14
#800000
04
17
#850000
13
14
#900000
04
07
#950000
14
#1000000
04
17
#1050000
03
12
14
#1100000
04
07
#1150000
14
#1200000
04
16
#1250000
14
#1300000
04
06
#1350000
14
#1400000
04
17
#1450000
14
#1500000
04
07
#1550000
1,
14
#1600000
04
17
#1650000
14
#1700000
04
07
#1750000
0,
1+
14
#1800000
04
#1850000
14
#1900000
04
16
#1950000
14
#2000000
04
06
#2050000
14
#2100000
04
17
#2150000
14
#2200000
04
07
#2250000
1%
14
#2300000
04
17
#2350000
14
#2400000
04
07
#2450000
0%
1$
14
