_service/20171223172107_SimulateISim_ace913_Counter24_tb/Counter24_tb.vcd
$date
   Sat Dec 23 17:21:11 2017
$end
$version
  P.15xf
$end
$timescale
  1ps
$end
$scope module Counter24_tb $end
$var wire 1 ! AMPM $end
$var wire 1 " q [3] $end
$var wire 1 # q [2] $end
$var wire 1 $ q [1] $end
$var wire 1 % q [0] $end
$var reg 1 & CLK $end
$var reg 1 ' RST $end
$upscope $end
$enddefinitions $end
#0
$dumpvars
0&
1'
0!
0%
0$
0#
0"
$end
#50000
1&
#100000
0&
0'
#150000
1&
1%
#200000
0&
#250000
1&
0%
1$
#300000
0&
#350000
1&
1%
#400000
0&
#450000
1&
0%
0$
1#
#500000
0&
#550000
1&
1%
#600000
0&
#650000
1&
0%
1$
#700000
0&
#750000
1&
1%
#800000
0&
#850000
1&
0%
0$
0#
1"
#900000
0&
#950000
1&
1%
#1000000
0&
#1050000
1&
0%
1$
#1100000
0&
#1150000
1&
1%
#1200000
0&
#1250000
1&
1!
0%
0$
0"
#1300000
0&
#1350000
1&
1%
#1400000
0&
#1450000
1&
0%
1$
#1500000
0&
#1550000
1&
1%
#1600000
0&
#1650000
1&
0%
0$
1#
#1700000
0&
#1750000
1&
1%
#1800000
0&
#1850000
1&
0%
1$
#1900000
0&
#1950000
1&
1%
#2000000
0&
#2050000
1&
0%
0$
0#
1"
#2100000
0&
#2150000
1&
1%
#2200000
0&
#2250000
1&
0%
1$
#2300000
0&
#2350000
1&
1%
#2400000
0&
#2450000
1&
0!
0%
0$
0"
#2500000
0&
#2550000
1&
1%
#2600000
0&
#2650000
1&
0%
1$
#2700000
0&
#2750000
1&
1%
#2800000
0&
#2850000
1&
0%
0$
1#
#2900000
0&
#2950000
1&
1%
#3000000
0&
#3050000
1&
0%
1$
#3100000
0&
#3150000
1&
1%
#3200000
0&
#3250000
1&
0%
0$
0#
1"
#3300000
0&
#3350000
1&
1%
#3400000
0&
#3450000
1&
0%
1$
#3500000
0&
#3550000
1&
1%
#3600000
0&
#3650000
1&
1!
0%
0$
0"
#3700000
0&
#3750000
1&
1%
#3800000
0&
#3850000
1&
0%
1$
#3900000
0&
#3950000
1&
1%
#4000000
0&
#4050000
1&
0%
0$
1#
#4100000
0&
#4150000
1&
1%
#4200000
0&
#4250000
1&
0%
1$
#4300000
0&
#4350000
1&
1%
#4400000
0&
#4450000
1&
0%
0$
0#
1"
#4500000
0&
#4550000
1&
1%
#4600000
0&
#4650000
1&
0%
1$
#4700000
0&
#4750000
1&
1%
#4800000
0&
#4850000
1&
0!
0%
0$
0"
#4900000
0&
#4950000
1&
1%
#5000000
0&
#5050000
1&
0%
1$
#5100000
0&
#5150000
1&
1%
#5200000
0&
#5250000
1&
0%
0$
1#
#5300000
0&
#5350000
1&
1%
#5400000
0&
#5450000
1&
0%
1$
#5500000
0&
#5550000
1&
1%
#5600000
0&
#5650000
1&
0%
0$
0#
1"
#5700000
0&
#5750000
1&
1%
#5800000
0&
#5850000
1&
0%
1$
#5900000
0&
#5950000
1&
1%
#6000000
0&
#6050000
1&
1!
0%
0$
0"
#6100000
0&
#6150000
1&
1%
#6200000
0&
#6250000
1&
0%
1$
#6300000
0&
#6350000
1&
1%
#6400000
0&
#6450000
1&
0%
0$
1#
#6500000
0&
#6550000
1&
1%
#6600000
0&
#6650000
1&
0%
1$
#6700000
0&
#6750000
1&
1%
#6800000
0&
#6850000
1&
0%
0$
0#
1"
#6900000
0&
#6950000
1&
1%
#7000000
0&
#7050000
1&
0%
1$
#7100000
0&
#7150000
1&
1%
#7200000
0&
#7250000
1&
0!
0%
0$
0"
#7300000
0&
#7350000
1&
1%
#7400000
0&
#7450000
1&
0%
1$
#7500000
0&
#7550000
1&
1%
#7600000
0&
#7650000
1&
0%
0$
1#
#7700000
0&
#7750000
1&
1%
#7800000
0&
#7850000
1&
0%
1$
#7900000
0&
#7950000
1&
1%
#8000000
0&
#8050000
1&
0%
0$
0#
1"
#8100000
0&
#8150000
1&
1%
#8200000
0&
#8250000
1&
0%
1$
#8300000
0&
#8350000
1&
1%
#8400000
0&
#8450000
1&
1!
0%
0$
0"
#8500000
0&
#8550000
1&
1%
#8600000
0&
#8650000
1&
0%
1$
#8700000
0&
#8750000
1&
1%
#8800000
0&
#8850000
1&
0%
0$
1#
#8900000
0&
#8950000
1&
1%
#9000000
0&
#9050000
1&
0%
1$
#9100000
0&
#9150000
1&
1%
#9200000
0&
#9250000
1&
0%
0$
0#
1"
#9300000
0&
#9350000
1&
1%
#9400000
0&
#9450000
1&
0%
1$
#9500000
0&
#9550000
1&
1%
#9600000
0&
#9650000
1&
0!
0%
0$
0"
#9700000
0&
#9750000
1&
1%
#9800000
0&
#9850000
1&
0%
1$
#9900000
0&
#9950000
1&
1%
